<svg width="1062" height="899" viewBox="0 0 1062 899" fill="none" xmlns="http://www.w3.org/2000/svg">
<path d="M402.017 -177.484L495.767 -101.529V-101.095L495.333 -100.661H396.375H395.941C395.941 -100.661 395.941 -100.661 395.941 -101.095L402.017 -177.484C401.583 -177.049 401.583 -177.484 402.017 -177.484ZM494.031 -101.529L402.451 -176.181L396.809 -101.529H494.031Z" fill="#9AD2E9"/>
<path d="M495.333 -101.529L688.042 26.9434V27.3774C688.042 27.3774 688.042 27.8115 687.608 27.8115L413.736 115.051H413.302V114.617L495.333 -101.529C494.899 -101.529 494.899 -101.529 495.333 -101.529ZM686.74 26.9434L495.333 -100.661L414.17 113.749L686.74 26.9434Z" fill="#9AD2E9"/>
<path d="M413.736 114.183C414.17 114.617 414.17 115.051 414.17 115.051L233.614 249.166H233.18L232.746 248.732V178.853C232.746 178.853 232.746 178.419 233.18 178.419L413.736 114.183ZM233.18 247.863L411.132 115.919L233.18 178.853V247.863Z" fill="#9AD2E9"/>
<path d="M-99.2852 -311.598L-63.6948 32.5859C-63.6948 32.5859 -63.6947 33.02 -64.1288 33.02H-64.563L-163.521 -42.9348V-43.3689L-99.2852 -311.598C-99.7192 -311.598 -99.7192 -311.598 -99.2852 -311.598ZM-64.9968 31.7179L-99.7191 -308.56L-163.087 -42.9348L-64.9968 31.7179Z" fill="#9AD2E9"/>
<path d="M232.746 177.985C233.18 178.419 233.18 178.419 232.746 177.985L233.18 248.298V248.732L232.746 248.732L-146.16 184.496L-146.594 184.062C-146.594 183.628 -146.594 183.628 -146.16 183.628L232.746 177.985ZM232.312 247.864V178.853L-141.386 184.496L232.312 247.864Z" fill="#9AD2E9"/>
<path d="M-64.5627 32.5858L233.18 178.419L233.614 178.853C233.614 178.853 233.614 179.287 233.18 179.287L-145.726 184.93H-146.16L-146.16 184.496L-64.5627 32.5858ZM231.01 177.985L-64.1288 33.02L-145.292 183.627L231.01 177.985Z" fill="#9AD2E9"/>
<path d="M200.629 -354.567H198.892L353.406 -265.157L-98.8507 -311.598L-74.111 -355.001H-74.9791L-99.7188 -311.598V-311.164C-99.7188 -311.164 -99.7189 -311.164 -99.2848 -310.73L355.576 -264.289C355.576 -264.289 356.01 -264.289 356.01 -264.723V-265.157L200.629 -354.567Z" fill="#9AD2E9"/>
<path d="M-212.566 -17.7614L-164.389 -42.067L-212.566 107.239V109.843L-163.087 -42.9348L-163.087 -43.369C-163.087 -43.369 -163.087 -43.3689 -163.521 -43.3689L-212.132 -19.0634V-17.7614H-212.566Z" fill="#9AD2E9"/>
<path d="M-212.566 -78.5253L-164.389 -42.9351L-212.566 -18.6295V-17.7614L-163.521 -42.5011C-163.521 -42.5011 -163.087 -42.5008 -163.087 -42.9348L-163.087 -43.369L-212.566 -79.8275V-78.5253Z" fill="#9AD2E9"/>
<path d="M993.597 -354.567L1002.28 -282.518L872.503 -354.567H870.767L1002.28 -281.65H1002.71V-282.084L994.031 -355.001H993.597V-354.567Z" fill="#9AD2E9"/>
<path d="M872.503 -354.567H870.767L1000.54 -282.518L862.955 -299.879L849.066 -354.567H848.198L862.087 -299.011C862.087 -299.011 862.087 -298.577 862.521 -298.577L1002.28 -281.216C1002.71 -281.216 1002.71 -281.216 1002.71 -281.65V-282.084L872.503 -354.567Z" fill="#9AD2E9"/>
<path d="M495.333 -101.529L670.247 -37.7266C670.247 -37.7266 670.681 -37.7266 670.681 -37.2926L688.042 26.9434V27.3774L687.608 27.3775L495.333 -100.661C495.333 -100.661 494.899 -100.661 494.899 -101.095C494.899 -101.529 494.899 -101.529 495.333 -101.529ZM669.813 -36.8586L498.371 -99.7926L686.74 25.6414L669.813 -36.8586Z" fill="#9AD2E9"/>
<path d="M862.521 -299.88L1002.71 -282.518H1003.15V-282.084L915.906 -31.2164L915.472 -30.7823C915.472 -30.7823 915.038 -30.7823 915.038 -31.2164L862.521 -299.445C862.087 -299.445 862.087 -299.88 862.521 -299.88ZM1001.84 -281.65L862.955 -299.011L915.038 -32.9525L1001.84 -281.65Z" fill="#9AD2E9"/>
<path d="M862.521 -299.88C862.955 -299.88 862.955 -299.88 862.521 -299.88L915.472 -31.2164L915.472 -30.7823H915.038L670.246 -36.4247C670.246 -36.4247 669.813 -36.4246 669.813 -36.8586L669.812 -37.2927L862.521 -299.88ZM914.604 -31.6504L862.521 -298.143L671.114 -37.2927L914.604 -31.6504Z" fill="#9AD2E9"/>
<path d="M670.247 -37.7266L915.038 -32.0841C915.038 -32.0841 915.472 -32.0842 915.472 -31.6501C915.472 -31.6501 915.472 -31.2164 915.038 -31.2164L687.607 26.9435C687.173 26.9435 687.173 26.9436 687.173 26.5096L669.812 -37.2927C669.812 -36.8587 669.813 -36.8586 670.247 -37.7266C669.813 -37.2926 669.813 -37.7266 670.247 -37.7266ZM912 -30.782L670.68 -36.4244L688.042 26.9434L912 -30.782Z" fill="#9AD2E9"/>
<path d="M385.09 -354.567L355.142 -265.157L200.629 -354.567H198.892L355.142 -263.855H355.576C355.576 -263.855 356.01 -263.855 356.01 -264.289L385.958 -354.567H385.09Z" fill="#9AD2E9"/>
<path d="M498.805 -354.567L356.01 -265.157L385.958 -354.567H385.09L355.142 -264.289L355.142 -263.855H355.576L500.541 -354.567H498.805Z" fill="#9AD2E9"/>
<path d="M553.493 -247.362C553.927 -246.928 553.927 -246.928 553.927 -246.928L495.767 -101.095C495.767 -101.095 495.767 -100.661 495.333 -100.661H494.899L401.583 -176.615V-177.05C401.583 -177.05 401.583 -177.484 402.017 -177.484L553.493 -247.362ZM494.899 -101.963L552.625 -246.06L402.451 -177.05L494.899 -101.963Z" fill="#9AD2E9"/>
<path d="M355.142 -264.723L553.493 -247.362C553.493 -247.362 553.927 -247.362 553.927 -246.928C553.927 -246.928 553.927 -246.494 553.493 -246.494L402.017 -176.615H401.583L355.142 -263.855C355.142 -263.855 355.142 -263.855 355.142 -264.289C354.708 -264.723 355.142 -264.723 355.142 -264.723ZM551.757 -246.928L356.01 -264.289L402.017 -177.918L551.757 -246.928Z" fill="#9AD2E9"/>
<path d="M848.198 -354.567L862.087 -299.445L557.399 -247.796L811.305 -354.567H809.135L553.493 -247.362L553.059 -246.928L553.493 -246.494L862.521 -299.011L862.955 -299.011L862.955 -299.445L849.066 -354.567H848.198Z" fill="#9AD2E9"/>
<path d="M862.521 -299.88C862.955 -299.445 862.955 -299.446 862.955 -299.011L670.68 -36.8587H670.246C670.246 -36.8587 669.812 -36.8587 669.812 -37.2927L553.059 -247.362V-247.796C553.059 -247.796 553.059 -248.23 553.493 -248.23L862.521 -299.88ZM670.247 -37.7266L861.653 -298.578L554.361 -246.494L670.247 -37.7266Z" fill="#9AD2E9"/>
<path d="M808.701 -354.567L553.493 -247.362L544.378 -354.567H543.51L553.059 -246.928L553.059 -246.494H553.493L811.305 -354.567H808.701Z" fill="#9AD2E9"/>
<path d="M553.493 -247.362L670.681 -37.2926L670.68 -36.8587H670.246L495.333 -101.095C495.333 -101.095 495.333 -101.095 494.899 -101.529L494.899 -101.963L553.493 -247.362ZM669.379 -37.7267L553.927 -245.626L496.201 -101.095L669.379 -37.7267Z" fill="#9AD2E9"/>
<path d="M543.51 -354.567L552.625 -247.362L356.01 -264.723L500.541 -354.567H498.805L355.142 -264.723C355.142 -264.723 354.708 -264.289 355.142 -264.289C355.142 -264.289 355.142 -263.855 355.576 -263.855L553.927 -246.494L554.361 -246.494L554.361 -246.928L544.812 -354.567H543.51Z" fill="#9AD2E9"/>
<path d="M1002.28 -282.518C1002.71 -282.518 1002.71 -282.518 1002.28 -282.518L1055.23 -200.487V-200.053L915.472 -30.7823H915.038C915.038 -30.7823 914.604 -31.2164 915.038 -31.2164L1002.28 -282.518ZM1054.36 -200.487L1002.71 -281.216L916.34 -33.8206L1054.36 -200.487Z" fill="#9AD2E9"/>
<path d="M-64.5627 32.5858C-64.1287 32.5858 -64.1288 33.02 -64.1288 33.02L-145.726 184.495C-145.726 184.495 -145.726 184.496 -146.16 184.496L-146.594 184.495L-193.035 155.416C-193.035 155.416 -193.035 155.416 -193.035 154.982V154.548L-64.5627 32.5858ZM-146.16 183.628L-65.8649 34.7558L-191.733 154.982L-146.16 183.628Z" fill="#9AD2E9"/>
<path d="M-163.521 -43.3689L-64.1287 32.5858C-64.1287 32.5858 -64.1288 32.586 -64.1288 33.02L-64.1287 33.4538L-192.601 155.85H-193.035L-193.469 155.416L-163.521 -43.3689C-163.955 -43.3689 -163.955 -43.3689 -163.521 -43.3689ZM-64.9968 33.0198L-163.087 -42.067L-191.733 154.114L-64.9968 33.0198Z" fill="#9AD2E9"/>
<path d="M-212.566 155.85L-193.035 155.85L-150.066 182.759L-213 160.19V161.058L-146.594 184.93H-146.16L-146.16 184.496L-192.601 155.416C-192.601 155.416 -192.601 155.416 -193.035 155.416L-213 155.416V155.85H-212.566Z" fill="#9AD2E9"/>
<path d="M-212.566 109.843L-164.823 -37.7267L-193.035 154.982L-212.566 154.982L-212.566 155.85L-192.601 155.85C-192.601 155.85 -192.167 155.85 -192.167 155.416L-163.087 -42.9348C-163.087 -43.3688 -163.087 -43.3689 -163.521 -43.3689C-163.521 -43.3689 -163.955 -43.3691 -163.955 -42.9351L-212.566 107.239V109.843Z" fill="#9AD2E9"/>
<path d="M-212.566 161.058L-147.028 184.495L-212.566 244.825V246.127L-145.726 184.93L-145.726 184.495C-145.726 184.495 -145.726 184.061 -146.16 184.061L-213 160.19V161.058L-212.566 161.058Z" fill="#9AD2E9"/>
<path d="M215.385 -66.8065L413.736 114.183L413.736 114.617C413.736 114.617 413.736 115.051 413.302 115.051L232.746 179.287H232.312C232.312 179.287 232.312 179.287 232.312 178.853L214.951 -65.9384C214.951 -66.3724 214.951 -66.8065 215.385 -66.8065ZM412.868 114.183L215.819 -65.5044L233.18 177.551L412.868 114.183Z" fill="#9AD2E9"/>
<path d="M355.142 -264.723C355.576 -264.723 355.576 -264.723 355.142 -264.723L402.017 -177.05V-176.615L215.385 -65.9385L214.951 -65.9384L214.951 -66.3726L355.142 -264.723ZM401.149 -177.05L355.142 -263.421L216.688 -67.2406L401.149 -177.05Z" fill="#9AD2E9"/>
<path d="M-99.2852 -311.598L355.576 -265.157C355.576 -265.157 356.01 -265.157 356.01 -264.723L356.01 -264.289L216.253 -65.9385C216.253 -65.9385 216.254 -65.9385 215.82 -65.9385H215.385L-99.2848 -310.73C-99.7189 -310.73 -100.153 -311.164 -99.2852 -311.598C-99.7192 -311.598 -99.7192 -311.598 -99.2852 -311.598ZM354.708 -264.289L-97.9824 -310.73L215.385 -67.2406L354.708 -264.289Z" fill="#9AD2E9"/>
<path d="M215.385 -66.8065C215.819 -66.3724 215.819 -66.3724 215.385 -66.8065L233.18 178.419V178.853H232.746L-64.563 33.02L-64.9968 32.5858C-64.9968 32.5858 -64.9969 32.1517 -64.5629 32.1517L215.385 -66.8065ZM232.312 177.985L214.951 -65.5045L-63.2606 33.0198L232.312 177.985Z" fill="#9AD2E9"/>
<path d="M-99.2852 -311.598L215.819 -66.8063V-66.3724C215.819 -66.3724 215.82 -65.9385 215.385 -65.9385L-64.563 33.02L-64.9968 33.0198C-64.9968 33.0198 -64.9968 33.0198 -64.9968 32.5858L-99.7188 -311.164C-99.7188 -311.164 -99.7192 -311.598 -99.2852 -311.598ZM214.517 -66.3724L-98.851 -310.296L-64.1287 32.152L214.517 -66.3724Z" fill="#9AD2E9"/>
<path d="M232.746 248.298C233.18 248.298 233.18 248.732 233.18 248.732L99.0656 575.121C99.0656 575.121 99.0657 575.555 98.6317 575.555H98.1975L28.3191 511.318V510.884L232.746 248.298ZM98.6317 574.252L231.444 251.336L29.6211 510.884L98.6317 574.252Z" fill="#9AD2E9"/>
<path d="M-146.16 184.061L232.746 248.298C232.746 248.298 233.18 248.298 233.18 248.732L233.18 249.166L29.1873 511.319C29.1873 511.319 29.1873 511.319 28.7532 511.319C28.7532 511.319 28.3191 511.318 28.3191 510.884L-146.594 184.495C-146.594 184.495 -146.594 184.495 -146.16 184.061ZM231.878 248.732L-145.292 184.93L28.7532 510.016L231.878 248.732Z" fill="#9AD2E9"/>
<path d="M495.333 -101.529C495.767 -101.095 495.767 -101.095 495.767 -101.095L414.17 114.617L413.736 115.051C413.736 115.051 413.302 115.051 413.302 114.617L378.146 -89.3761V-89.8101C378.146 -89.8101 378.146 -89.8101 378.58 -89.8101L495.333 -101.529ZM413.736 112.881L494.465 -100.661L379.013 -88.9421L413.736 112.881Z" fill="#9AD2E9"/>
<path d="M395.941 -101.529L494.899 -101.529C495.333 -101.529 495.333 -101.529 495.333 -101.095C495.333 -100.661 495.333 -100.661 494.899 -100.661L378.146 -88.9421C378.146 -88.9421 377.712 -88.942 377.712 -89.376V-89.8101L395.941 -101.529ZM486.653 -100.661L396.375 -100.661L380.316 -90.2442L486.653 -100.661Z" fill="#9AD2E9"/>
<path d="M378.58 -89.8101C379.014 -89.8101 379.014 -89.8101 378.58 -89.8101L414.17 114.617V115.051H413.736L215.385 -65.5045L215.385 -65.9385C215.385 -65.9385 215.385 -66.3724 215.819 -66.3724L378.58 -89.8101ZM412.868 113.315L378.146 -88.9421L216.253 -65.9385L412.868 113.315Z" fill="#9AD2E9"/>
<path d="M402.017 -177.484C402.451 -177.484 402.451 -177.05 402.451 -177.05L396.809 -101.095V-100.661L379.448 -88.9421H379.013L379.014 -89.376L402.017 -177.484C401.583 -177.484 401.583 -177.484 402.017 -177.484ZM395.507 -101.529L401.149 -172.275L379.448 -90.2442L395.507 -101.529Z" fill="#9AD2E9"/>
<path d="M402.017 -177.484C402.451 -177.484 402.451 -177.05 402.451 -177.05L379.014 -89.81C379.014 -89.81 379.014 -89.3759 378.58 -89.3759L215.385 -65.9385C215.385 -65.9385 214.951 -65.9385 214.951 -66.3726L214.951 -66.8065L402.017 -177.484ZM378.146 -89.8101L401.149 -175.747L217.555 -66.8065L378.146 -89.8101Z" fill="#9AD2E9"/>
<path d="M-212.566 807.759L35.6979 871.562L-212.566 852.898V853.766L40.472 872.864C40.9061 872.864 40.9062 872.864 40.9062 872.43C40.9062 871.996 40.9061 871.996 40.472 871.996L-212.566 806.891V807.759Z" fill="#9AD2E9"/>
<path d="M-212.566 853.766L35.6979 872.43L-212.566 897.169V898.037L40.472 872.864C40.9061 872.864 40.9062 872.864 40.9062 872.43C40.9062 871.996 40.9061 871.996 40.472 871.996L-212.566 852.898V853.766Z" fill="#9AD2E9"/>
<path d="M-212.566 898.037V898.905L40.472 872.864C40.9061 872.864 40.9062 872.43 40.9062 872.43C40.9062 871.996 40.9061 871.996 40.472 871.996L-212.566 897.169V898.037Z" fill="#9AD2E9"/>
<path d="M-212.566 620.693L98.1975 575.555L40.038 871.562L-212.566 667.568V668.871L40.038 872.864H40.472C40.472 872.864 40.9062 872.864 40.9062 872.43L99.0656 575.121L99.0657 574.686C99.0657 574.686 99.0658 574.686 98.6318 574.686L-212.566 619.825V620.693Z" fill="#9AD2E9"/>
<path d="M-212.566 608.107L28.7533 511.752L97.7638 575.12L-212.566 619.825V620.693L99.0658 575.554C99.0658 575.554 99.5 575.554 99.5 575.12V574.686L29.6215 510.45C29.6215 510.45 29.6216 510.45 29.1875 510.45L-212.566 606.804V608.107Z" fill="#9AD2E9"/>
<path d="M-212.566 668.437L38.7361 871.562L-212.566 806.891V807.759L40.472 872.864C40.472 872.864 40.9062 872.864 40.9062 872.43V871.996L-212.566 667.568L-212.566 668.437Z" fill="#9AD2E9"/>
<path d="M-212.566 438.836L-145.726 185.798L28.3191 510.884L-212.566 606.804L-212.566 607.672L29.1874 510.884C29.1874 510.884 29.1874 510.884 29.6215 510.45L29.6213 510.016L-145.292 183.627L-145.726 183.193C-145.726 183.193 -146.16 183.193 -146.16 183.628L-212.566 435.363V438.836Z" fill="#9AD2E9"/>
<path d="M-212.566 246.127L-147.028 185.798L-212.566 435.363V438.836L-145.726 184.495L-145.726 184.062C-145.726 184.062 -145.726 184.061 -146.16 184.061C-146.16 184.061 -146.16 184.062 -146.594 184.062L-213 244.825V246.127L-212.566 246.127Z" fill="#9AD2E9"/>
<path d="M1001.41 -354.567L1001.84 -289.897L994.031 -354.567H993.163L1001.84 -281.65C1001.84 -281.216 1001.84 -281.216 1002.28 -281.216C1002.71 -281.216 1002.71 -281.216 1002.71 -281.65L1002.28 -354.567H1001.41Z" fill="#9AD2E9"/>
<path d="M1042.21 -354.567L1053.93 -201.789L1002.28 -282.084L1001.84 -354.567H1000.98L1001.41 -281.651C1001.41 -281.651 1001.41 -281.651 1001.41 -281.216L1053.93 -199.619C1053.93 -199.619 1054.36 -199.185 1054.36 -199.619L1054.8 -200.053L1042.64 -354.567H1042.21Z" fill="#9AD2E9"/>
<path d="M-212.566 -330.695L-100.153 -310.73L-163.955 -44.671L-213 -191.372V-188.768L-164.389 -42.9351L-163.955 -42.5009C-163.955 -42.5009 -163.521 -42.5008 -163.521 -42.9348L-98.8508 -311.164L-98.8507 -311.598C-98.8507 -311.598 -98.8511 -311.598 -99.2852 -311.598L-212.566 -331.997V-330.695Z" fill="#9AD2E9"/>
<path d="M-212.566 -188.768L-164.389 -44.2369L-212.566 -79.8275L-212.566 -78.9591L-163.955 -42.9351L-163.521 -42.9348V-43.3689L-213 -191.806V-188.768H-212.566Z" fill="#9AD2E9"/>
<path d="M-74.979 -354.567L-99.7188 -311.598L-145.726 -354.567H-147.028L-99.7186 -310.73L-99.2848 -310.73L-98.8506 -310.73L-73.677 -354.567H-74.979Z" fill="#9AD2E9"/>
<path d="M-145.292 -354.567H-146.594L-100.587 -311.598L-212.566 -331.564L-212.566 -330.695L-99.285 -310.296C-99.285 -310.296 -98.8506 -310.296 -98.8506 -310.73L-98.8508 -311.164L-145.292 -354.567Z" fill="#9AD2E9"/>
<path d="M395.941 -108.039C392.105 -108.039 388.996 -104.93 388.996 -101.095C388.996 -97.2593 392.105 -94.1502 395.941 -94.1502C399.776 -94.1502 402.885 -97.2593 402.885 -101.095C402.885 -104.93 399.776 -108.039 395.941 -108.039Z" fill="#9AD2E9"/>
<path d="M402.017 -183.994C398.182 -183.994 395.073 -180.885 395.073 -177.05C395.073 -173.214 398.182 -170.105 402.017 -170.105C405.853 -170.105 408.962 -173.214 408.962 -177.05C408.962 -180.885 405.853 -183.994 402.017 -183.994Z" fill="#9AD2E9"/>
<path d="M495.333 -108.039C491.498 -108.039 488.389 -104.93 488.389 -101.095C488.389 -97.2593 491.498 -94.1502 495.333 -94.1502C499.168 -94.1502 502.278 -97.2593 502.278 -101.095C502.278 -104.93 499.168 -108.039 495.333 -108.039Z" fill="#9AD2E9"/>
<path d="M413.736 107.672C409.901 107.672 406.792 110.782 406.792 114.617C406.792 118.452 409.901 121.561 413.736 121.561C417.571 121.561 420.68 118.452 420.68 114.617C420.68 110.782 417.571 107.672 413.736 107.672Z" fill="#9AD2E9"/>
<path d="M232.746 241.787C228.911 241.787 225.802 244.896 225.802 248.732C225.802 252.567 228.911 255.676 232.746 255.676C236.582 255.676 239.691 252.567 239.691 248.732C239.691 244.896 236.582 241.787 232.746 241.787Z" fill="#9AD2E9"/>
<path d="M413.736 107.672C409.901 107.672 406.792 110.782 406.792 114.617C406.792 118.452 409.901 121.561 413.736 121.561C417.571 121.561 420.68 118.452 420.68 114.617C420.68 110.782 417.571 107.672 413.736 107.672Z" fill="#9AD2E9"/>
<path d="M495.333 -108.039C491.498 -108.039 488.389 -104.93 488.389 -101.095C488.389 -97.2593 491.498 -94.1502 495.333 -94.1502C499.168 -94.1502 502.278 -97.2593 502.278 -101.095C502.278 -104.93 499.168 -108.039 495.333 -108.039Z" fill="#9AD2E9"/>
<path d="M687.608 19.9991C683.772 19.9991 680.663 23.1082 680.663 26.9435C680.663 30.7788 683.772 33.8879 687.608 33.8879C691.443 33.8879 694.552 30.7788 694.552 26.9435C694.552 23.1082 691.443 19.9991 687.608 19.9991Z" fill="#9AD2E9"/>
<path d="M413.736 107.672C409.901 107.672 406.792 110.782 406.792 114.617C406.792 118.452 409.901 121.561 413.736 121.561C417.571 121.561 420.68 118.452 420.68 114.617C420.68 110.782 417.571 107.672 413.736 107.672Z" fill="#9AD2E9"/>
<path d="M687.608 19.9991C683.772 19.9991 680.663 23.1082 680.663 26.9435C680.663 30.7788 683.772 33.8879 687.608 33.8879C691.443 33.8879 694.552 30.7788 694.552 26.9435C694.552 23.1082 691.443 19.9991 687.608 19.9991Z" fill="#9AD2E9"/>
<path d="M413.736 107.672C409.901 107.672 406.792 110.782 406.792 114.617C406.792 118.452 409.901 121.561 413.736 121.561C417.571 121.561 420.68 118.452 420.68 114.617C420.68 110.782 417.571 107.672 413.736 107.672Z" fill="#9AD2E9"/>
<path d="M232.746 171.475C228.911 171.475 225.802 174.584 225.802 178.419C225.802 182.254 228.911 185.364 232.746 185.364C236.582 185.364 239.691 182.254 239.691 178.419C239.691 174.584 236.582 171.475 232.746 171.475Z" fill="#9AD2E9"/>
<path d="M232.746 241.787C228.911 241.787 225.802 244.896 225.802 248.732C225.802 252.567 228.911 255.676 232.746 255.676C236.582 255.676 239.691 252.567 239.691 248.732C239.691 244.896 236.582 241.787 232.746 241.787Z" fill="#9AD2E9"/>
<path d="M413.736 107.672C409.901 107.672 406.792 110.782 406.792 114.617C406.792 118.452 409.901 121.561 413.736 121.561C417.571 121.561 420.68 118.452 420.68 114.617C420.68 110.782 417.571 107.672 413.736 107.672Z" fill="#9AD2E9"/>
<path d="M40.4722 865.485C36.6368 865.485 33.5278 868.594 33.5278 872.43C33.5278 876.265 36.6368 879.374 40.4722 879.374C44.3075 879.374 47.4167 876.265 47.4167 872.43C47.4167 868.594 44.3075 865.485 40.4722 865.485Z" fill="#9AD2E9"/>
<path d="M-64.5629 26.0756C-68.3982 26.0756 -71.5073 29.1847 -71.5073 33.02C-71.5073 36.8553 -68.3982 39.9644 -64.5629 39.9644C-60.7275 39.9644 -57.6182 36.8553 -57.6182 33.02C-57.6182 29.1847 -60.7275 26.0756 -64.5629 26.0756Z" fill="#9AD2E9"/>
<path d="M-163.521 -49.8793C-167.356 -49.8793 -170.465 -46.7702 -170.465 -42.9349C-170.465 -39.0995 -167.356 -35.9905 -163.521 -35.9905C-159.686 -35.9905 -156.576 -39.0995 -156.576 -42.9349C-156.576 -46.7702 -159.686 -49.8793 -163.521 -49.8793Z" fill="#9AD2E9"/>
<path d="M-99.2849 -318.109C-103.12 -318.109 -106.229 -315 -106.229 -311.164C-106.229 -307.329 -103.12 -304.22 -99.2849 -304.22C-95.4496 -304.22 -92.3403 -307.329 -92.3403 -311.164C-92.3403 -315 -95.4496 -318.109 -99.2849 -318.109Z" fill="#9AD2E9"/>
<path d="M-146.16 177.551C-149.995 177.551 -153.104 180.66 -153.104 184.496C-153.104 188.331 -149.995 191.44 -146.16 191.44C-142.324 191.44 -139.215 188.331 -139.215 184.496C-139.215 180.66 -142.324 177.551 -146.16 177.551Z" fill="#9AD2E9"/>
<path d="M232.746 241.787C228.911 241.787 225.802 244.896 225.802 248.732C225.802 252.567 228.911 255.676 232.746 255.676C236.582 255.676 239.691 252.567 239.691 248.732C239.691 244.896 236.582 241.787 232.746 241.787Z" fill="#9AD2E9"/>
<path d="M232.746 171.475C228.911 171.475 225.802 174.584 225.802 178.419C225.802 182.254 228.911 185.364 232.746 185.364C236.582 185.364 239.691 182.254 239.691 178.419C239.691 174.584 236.582 171.475 232.746 171.475Z" fill="#9AD2E9"/>
<path d="M-146.16 177.551C-149.995 177.551 -153.104 180.66 -153.104 184.496C-153.104 188.331 -149.995 191.44 -146.16 191.44C-142.324 191.44 -139.215 188.331 -139.215 184.496C-139.215 180.66 -142.324 177.551 -146.16 177.551Z" fill="#9AD2E9"/>
<path d="M-64.5629 26.0756C-68.3982 26.0756 -71.5073 29.1847 -71.5073 33.02C-71.5073 36.8553 -68.3982 39.9644 -64.5629 39.9644C-60.7275 39.9644 -57.6182 36.8553 -57.6182 33.02C-57.6182 29.1847 -60.7275 26.0756 -64.5629 26.0756Z" fill="#9AD2E9"/>
<path d="M232.746 171.475C228.911 171.475 225.802 174.584 225.802 178.419C225.802 182.254 228.911 185.364 232.746 185.364C236.582 185.364 239.691 182.254 239.691 178.419C239.691 174.584 236.582 171.475 232.746 171.475Z" fill="#9AD2E9"/>
<path d="M98.6316 568.176C94.7963 568.176 91.687 571.285 91.687 575.121C91.687 578.956 94.7963 582.065 98.6316 582.065C102.467 582.065 105.576 578.956 105.576 575.121C105.576 571.285 102.467 568.176 98.6316 568.176Z" fill="#9AD2E9"/>
<path d="M232.746 241.787C228.911 241.787 225.802 244.896 225.802 248.732C225.802 252.567 228.911 255.676 232.746 255.676C236.582 255.676 239.691 252.567 239.691 248.732C239.691 244.896 236.582 241.787 232.746 241.787Z" fill="#9AD2E9"/>
<path d="M355.142 -271.233C351.307 -271.233 348.198 -268.124 348.198 -264.289C348.198 -260.454 351.307 -257.345 355.142 -257.345C358.977 -257.345 362.087 -260.454 362.087 -264.289C362.087 -268.124 358.977 -271.233 355.142 -271.233Z" fill="#9AD2E9"/>
<path d="M-99.2849 -318.109C-103.12 -318.109 -106.229 -315 -106.229 -311.164C-106.229 -307.329 -103.12 -304.22 -99.2849 -304.22C-95.4496 -304.22 -92.3403 -307.329 -92.3403 -311.164C-92.3403 -315 -95.4496 -318.109 -99.2849 -318.109Z" fill="#9AD2E9"/>
<path d="M98.6316 568.176C94.7963 568.176 91.687 571.285 91.687 575.121C91.687 578.956 94.7963 582.065 98.6316 582.065C102.467 582.065 105.576 578.956 105.576 575.121C105.576 571.285 102.467 568.176 98.6316 568.176Z" fill="#9AD2E9"/>
<path d="M-163.521 -49.8793C-167.356 -49.8793 -170.465 -46.7702 -170.465 -42.9349C-170.465 -39.0995 -167.356 -35.9905 -163.521 -35.9905C-159.686 -35.9905 -156.576 -39.0995 -156.576 -42.9349C-156.576 -46.7702 -159.686 -49.8793 -163.521 -49.8793Z" fill="#9AD2E9"/>
<path d="M-163.521 -49.8793C-167.356 -49.8793 -170.465 -46.7702 -170.465 -42.9349C-170.465 -39.0995 -167.356 -35.9905 -163.521 -35.9905C-159.686 -35.9905 -156.576 -39.0995 -156.576 -42.9349C-156.576 -46.7702 -159.686 -49.8793 -163.521 -49.8793Z" fill="#9AD2E9"/>
<path d="M1002.28 -289.028C998.443 -289.028 995.333 -285.919 995.333 -282.084C995.333 -278.249 998.443 -275.14 1002.28 -275.14C1006.11 -275.14 1009.22 -278.249 1009.22 -282.084C1009.22 -285.919 1006.11 -289.028 1002.28 -289.028Z" fill="#9AD2E9"/>
<path d="M862.521 -306.39C858.685 -306.39 855.576 -303.28 855.576 -299.445C855.576 -295.61 858.685 -292.501 862.521 -292.501C866.356 -292.501 869.465 -295.61 869.465 -299.445C869.465 -303.28 866.356 -306.39 862.521 -306.39Z" fill="#9AD2E9"/>
<path d="M1002.28 -289.028C998.443 -289.028 995.333 -285.919 995.333 -282.084C995.333 -278.249 998.443 -275.14 1002.28 -275.14C1006.11 -275.14 1009.22 -278.249 1009.22 -282.084C1009.22 -285.919 1006.11 -289.028 1002.28 -289.028Z" fill="#9AD2E9"/>
<path d="M670.247 -44.2372C666.411 -44.2372 663.302 -41.1281 663.302 -37.2927C663.302 -33.4574 666.411 -30.3483 670.247 -30.3483C674.082 -30.3483 677.191 -33.4574 677.191 -37.2927C677.191 -41.1281 674.082 -44.2372 670.247 -44.2372Z" fill="#9AD2E9"/>
<path d="M495.333 -108.039C491.498 -108.039 488.389 -104.93 488.389 -101.095C488.389 -97.2593 491.498 -94.1502 495.333 -94.1502C499.168 -94.1502 502.278 -97.2593 502.278 -101.095C502.278 -104.93 499.168 -108.039 495.333 -108.039Z" fill="#9AD2E9"/>
<path d="M687.608 19.9991C683.772 19.9991 680.663 23.1082 680.663 26.9435C680.663 30.7788 683.772 33.8879 687.608 33.8879C691.443 33.8879 694.552 30.7788 694.552 26.9435C694.552 23.1082 691.443 19.9991 687.608 19.9991Z" fill="#9AD2E9"/>
<path d="M40.4722 865.485C36.6368 865.485 33.5278 868.594 33.5278 872.43C33.5278 876.265 36.6368 879.374 40.4722 879.374C44.3075 879.374 47.4167 876.265 47.4167 872.43C47.4167 868.594 44.3075 865.485 40.4722 865.485Z" fill="#9AD2E9"/>
<path d="M98.6316 568.176C94.7963 568.176 91.687 571.285 91.687 575.121C91.687 578.956 94.7963 582.065 98.6316 582.065C102.467 582.065 105.576 578.956 105.576 575.121C105.576 571.285 102.467 568.176 98.6316 568.176Z" fill="#9AD2E9"/>
<path d="M40.4722 865.485C36.6368 865.485 33.5278 868.594 33.5278 872.43C33.5278 876.265 36.6368 879.374 40.4722 879.374C44.3075 879.374 47.4167 876.265 47.4167 872.43C47.4167 868.594 44.3075 865.485 40.4722 865.485Z" fill="#9AD2E9"/>
<path d="M98.6316 568.176C94.7963 568.176 91.687 571.285 91.687 575.121C91.687 578.956 94.7963 582.065 98.6316 582.065C102.467 582.065 105.576 578.956 105.576 575.121C105.576 571.285 102.467 568.176 98.6316 568.176Z" fill="#9AD2E9"/>
<path d="M915.038 -38.1608C911.203 -38.1608 908.094 -35.0517 908.094 -31.2164C908.094 -27.381 911.203 -24.2719 915.038 -24.2719C918.873 -24.2719 921.982 -27.381 921.982 -31.2164C921.982 -35.0517 918.873 -38.1608 915.038 -38.1608Z" fill="#9AD2E9"/>
<path d="M862.521 -306.39C858.685 -306.39 855.576 -303.28 855.576 -299.445C855.576 -295.61 858.685 -292.501 862.521 -292.501C866.356 -292.501 869.465 -295.61 869.465 -299.445C869.465 -303.28 866.356 -306.39 862.521 -306.39Z" fill="#9AD2E9"/>
<path d="M1002.28 -289.028C998.443 -289.028 995.333 -285.919 995.333 -282.084C995.333 -278.249 998.443 -275.14 1002.28 -275.14C1006.11 -275.14 1009.22 -278.249 1009.22 -282.084C1009.22 -285.919 1006.11 -289.028 1002.28 -289.028Z" fill="#9AD2E9"/>
<path d="M915.038 -38.1608C911.203 -38.1608 908.094 -35.0517 908.094 -31.2164C908.094 -27.381 911.203 -24.2719 915.038 -24.2719C918.873 -24.2719 921.982 -27.381 921.982 -31.2164C921.982 -35.0517 918.873 -38.1608 915.038 -38.1608Z" fill="#9AD2E9"/>
<path d="M670.247 -44.2372C666.411 -44.2372 663.302 -41.1281 663.302 -37.2927C663.302 -33.4574 666.411 -30.3483 670.247 -30.3483C674.082 -30.3483 677.191 -33.4574 677.191 -37.2927C677.191 -41.1281 674.082 -44.2372 670.247 -44.2372Z" fill="#9AD2E9"/>
<path d="M862.521 -306.39C858.685 -306.39 855.576 -303.28 855.576 -299.445C855.576 -295.61 858.685 -292.501 862.521 -292.501C866.356 -292.501 869.465 -295.61 869.465 -299.445C869.465 -303.28 866.356 -306.39 862.521 -306.39Z" fill="#9AD2E9"/>
<path d="M915.038 -38.1608C911.203 -38.1608 908.094 -35.0517 908.094 -31.2164C908.094 -27.381 911.203 -24.2719 915.038 -24.2719C918.873 -24.2719 921.982 -27.381 921.982 -31.2164C921.982 -35.0517 918.873 -38.1608 915.038 -38.1608Z" fill="#9AD2E9"/>
<path d="M670.247 -44.2372C666.411 -44.2372 663.302 -41.1281 663.302 -37.2927C663.302 -33.4574 666.411 -30.3483 670.247 -30.3483C674.082 -30.3483 677.191 -33.4574 677.191 -37.2927C677.191 -41.1281 674.082 -44.2372 670.247 -44.2372Z" fill="#9AD2E9"/>
<path d="M687.608 19.9991C683.772 19.9991 680.663 23.1082 680.663 26.9435C680.663 30.7788 683.772 33.8879 687.608 33.8879C691.443 33.8879 694.552 30.7788 694.552 26.9435C694.552 23.1082 691.443 19.9991 687.608 19.9991Z" fill="#9AD2E9"/>
<path d="M355.142 -271.233C351.307 -271.233 348.198 -268.124 348.198 -264.289C348.198 -260.454 351.307 -257.345 355.142 -257.345C358.977 -257.345 362.087 -260.454 362.087 -264.289C362.087 -268.124 358.977 -271.233 355.142 -271.233Z" fill="#9AD2E9"/>
<path d="M355.142 -271.233C351.307 -271.233 348.198 -268.124 348.198 -264.289C348.198 -260.454 351.307 -257.345 355.142 -257.345C358.977 -257.345 362.087 -260.454 362.087 -264.289C362.087 -268.124 358.977 -271.233 355.142 -271.233Z" fill="#9AD2E9"/>
<path d="M40.4722 865.485C36.6368 865.485 33.5278 868.594 33.5278 872.43C33.5278 876.265 36.6368 879.374 40.4722 879.374C44.3075 879.374 47.4167 876.265 47.4167 872.43C47.4167 868.594 44.3075 865.485 40.4722 865.485Z" fill="#9AD2E9"/>
<path d="M553.493 -253.872C549.658 -253.872 546.548 -250.763 546.548 -246.928C546.548 -243.093 549.658 -239.984 553.493 -239.984C557.328 -239.984 560.437 -243.093 560.437 -246.928C560.437 -250.763 557.328 -253.872 553.493 -253.872Z" fill="#9AD2E9"/>
<path d="M402.017 -183.994C398.182 -183.994 395.073 -180.885 395.073 -177.05C395.073 -173.214 398.182 -170.105 402.017 -170.105C405.853 -170.105 408.962 -173.214 408.962 -177.05C408.962 -180.885 405.853 -183.994 402.017 -183.994Z" fill="#9AD2E9"/>
<path d="M495.333 -108.039C491.498 -108.039 488.389 -104.93 488.389 -101.095C488.389 -97.2593 491.498 -94.1502 495.333 -94.1502C499.168 -94.1502 502.278 -97.2593 502.278 -101.095C502.278 -104.93 499.168 -108.039 495.333 -108.039Z" fill="#9AD2E9"/>
<path d="M553.493 -253.872C549.658 -253.872 546.548 -250.763 546.548 -246.928C546.548 -243.093 549.658 -239.984 553.493 -239.984C557.328 -239.984 560.437 -243.093 560.437 -246.928C560.437 -250.763 557.328 -253.872 553.493 -253.872Z" fill="#9AD2E9"/>
<path d="M355.142 -271.233C351.307 -271.233 348.198 -268.124 348.198 -264.289C348.198 -260.454 351.307 -257.345 355.142 -257.345C358.977 -257.345 362.087 -260.454 362.087 -264.289C362.087 -268.124 358.977 -271.233 355.142 -271.233Z" fill="#9AD2E9"/>
<path d="M402.017 -183.994C398.182 -183.994 395.073 -180.885 395.073 -177.05C395.073 -173.214 398.182 -170.105 402.017 -170.105C405.853 -170.105 408.962 -173.214 408.962 -177.05C408.962 -180.885 405.853 -183.994 402.017 -183.994Z" fill="#9AD2E9"/>
<path d="M553.493 -253.872C549.658 -253.872 546.548 -250.763 546.548 -246.928C546.548 -243.093 549.658 -239.984 553.493 -239.984C557.328 -239.984 560.437 -243.093 560.437 -246.928C560.437 -250.763 557.328 -253.872 553.493 -253.872Z" fill="#9AD2E9"/>
<path d="M862.521 -306.39C858.685 -306.39 855.576 -303.28 855.576 -299.445C855.576 -295.61 858.685 -292.501 862.521 -292.501C866.356 -292.501 869.465 -295.61 869.465 -299.445C869.465 -303.28 866.356 -306.39 862.521 -306.39Z" fill="#9AD2E9"/>
<path d="M553.493 -253.872C549.658 -253.872 546.548 -250.763 546.548 -246.928C546.548 -243.093 549.658 -239.984 553.493 -239.984C557.328 -239.984 560.437 -243.093 560.437 -246.928C560.437 -250.763 557.328 -253.872 553.493 -253.872Z" fill="#9AD2E9"/>
<path d="M670.247 -44.2372C666.411 -44.2372 663.302 -41.1281 663.302 -37.2927C663.302 -33.4574 666.411 -30.3483 670.247 -30.3483C674.082 -30.3483 677.191 -33.4574 677.191 -37.2927C677.191 -41.1281 674.082 -44.2372 670.247 -44.2372Z" fill="#9AD2E9"/>
<path d="M862.521 -306.39C858.685 -306.39 855.576 -303.28 855.576 -299.445C855.576 -295.61 858.685 -292.501 862.521 -292.501C866.356 -292.501 869.465 -295.61 869.465 -299.445C869.465 -303.28 866.356 -306.39 862.521 -306.39Z" fill="#9AD2E9"/>
<path d="M553.493 -253.872C549.658 -253.872 546.548 -250.763 546.548 -246.928C546.548 -243.093 549.658 -239.984 553.493 -239.984C557.328 -239.984 560.437 -243.093 560.437 -246.928C560.437 -250.763 557.328 -253.872 553.493 -253.872Z" fill="#9AD2E9"/>
<path d="M553.493 -253.872C549.658 -253.872 546.548 -250.763 546.548 -246.928C546.548 -243.093 549.658 -239.984 553.493 -239.984C557.328 -239.984 560.437 -243.093 560.437 -246.928C560.437 -250.763 557.328 -253.872 553.493 -253.872Z" fill="#9AD2E9"/>
<path d="M495.333 -108.039C491.498 -108.039 488.389 -104.93 488.389 -101.095C488.389 -97.2593 491.498 -94.1502 495.333 -94.1502C499.168 -94.1502 502.278 -97.2593 502.278 -101.095C502.278 -104.93 499.168 -108.039 495.333 -108.039Z" fill="#9AD2E9"/>
<path d="M670.247 -44.2372C666.411 -44.2372 663.302 -41.1281 663.302 -37.2927C663.302 -33.4574 666.411 -30.3483 670.247 -30.3483C674.082 -30.3483 677.191 -33.4574 677.191 -37.2927C677.191 -41.1281 674.082 -44.2372 670.247 -44.2372Z" fill="#9AD2E9"/>
<path d="M553.493 -253.872C549.658 -253.872 546.548 -250.763 546.548 -246.928C546.548 -243.093 549.658 -239.984 553.493 -239.984C557.328 -239.984 560.437 -243.093 560.437 -246.928C560.437 -250.763 557.328 -253.872 553.493 -253.872Z" fill="#9AD2E9"/>
<path d="M355.142 -271.233C351.307 -271.233 348.198 -268.124 348.198 -264.289C348.198 -260.454 351.307 -257.345 355.142 -257.345C358.977 -257.345 362.087 -260.454 362.087 -264.289C362.087 -268.124 358.977 -271.233 355.142 -271.233Z" fill="#9AD2E9"/>
<path d="M915.038 -38.1608C911.203 -38.1608 908.094 -35.0517 908.094 -31.2164C908.094 -27.381 911.203 -24.2719 915.038 -24.2719C918.873 -24.2719 921.982 -27.381 921.982 -31.2164C921.982 -35.0517 918.873 -38.1608 915.038 -38.1608Z" fill="#9AD2E9"/>
<path d="M687.608 19.9991C683.772 19.9991 680.663 23.1082 680.663 26.9435C680.663 30.7788 683.772 33.8879 687.608 33.8879C691.443 33.8879 694.552 30.7788 694.552 26.9435C694.552 23.1082 691.443 19.9991 687.608 19.9991Z" fill="#9AD2E9"/>
<path d="M915.038 -38.1608C911.203 -38.1608 908.094 -35.0517 908.094 -31.2164C908.094 -27.381 911.203 -24.2719 915.038 -24.2719C918.873 -24.2719 921.982 -27.381 921.982 -31.2164C921.982 -35.0517 918.873 -38.1608 915.038 -38.1608Z" fill="#9AD2E9"/>
<path d="M687.608 19.9991C683.772 19.9991 680.663 23.1082 680.663 26.9435C680.663 30.7788 683.772 33.8879 687.608 33.8879C691.443 33.8879 694.552 30.7788 694.552 26.9435C694.552 23.1082 691.443 19.9991 687.608 19.9991Z" fill="#9AD2E9"/>
<path d="M1054.79 -207.432C1050.96 -207.432 1047.85 -204.323 1047.85 -200.487C1047.85 -196.652 1050.96 -193.543 1054.79 -193.543C1058.63 -193.543 1061.74 -196.652 1061.74 -200.487C1061.74 -204.323 1058.63 -207.432 1054.79 -207.432Z" fill="#9AD2E9"/>
<path d="M915.038 -38.1608C911.203 -38.1608 908.094 -35.0517 908.094 -31.2164C908.094 -27.381 911.203 -24.2719 915.038 -24.2719C918.873 -24.2719 921.982 -27.381 921.982 -31.2164C921.982 -35.0517 918.873 -38.1608 915.038 -38.1608Z" fill="#9AD2E9"/>
<path d="M1054.79 -207.432C1050.96 -207.432 1047.85 -204.323 1047.85 -200.487C1047.85 -196.652 1050.96 -193.543 1054.79 -193.543C1058.63 -193.543 1061.74 -196.652 1061.74 -200.487C1061.74 -204.323 1058.63 -207.432 1054.79 -207.432Z" fill="#9AD2E9"/>
<path d="M915.038 -38.1608C911.203 -38.1608 908.094 -35.0517 908.094 -31.2164C908.094 -27.381 911.203 -24.2719 915.038 -24.2719C918.873 -24.2719 921.982 -27.381 921.982 -31.2164C921.982 -35.0517 918.873 -38.1608 915.038 -38.1608Z" fill="#9AD2E9"/>
<path d="M1002.28 -289.028C998.443 -289.028 995.333 -285.919 995.333 -282.084C995.333 -278.249 998.443 -275.14 1002.28 -275.14C1006.11 -275.14 1009.22 -278.249 1009.22 -282.084C1009.22 -285.919 1006.11 -289.028 1002.28 -289.028Z" fill="#9AD2E9"/>
<path d="M1054.79 -207.432C1050.96 -207.432 1047.85 -204.323 1047.85 -200.487C1047.85 -196.652 1050.96 -193.543 1054.79 -193.543C1058.63 -193.543 1061.74 -196.652 1061.74 -200.487C1061.74 -204.323 1058.63 -207.432 1054.79 -207.432Z" fill="#9AD2E9"/>
<path d="M-192.601 148.471C-196.436 148.471 -199.545 151.58 -199.545 155.416C-199.545 159.251 -196.436 162.36 -192.601 162.36C-188.766 162.36 -185.656 159.251 -185.656 155.416C-185.656 151.58 -188.766 148.471 -192.601 148.471Z" fill="#9AD2E9"/>
<path d="M-146.16 177.551C-149.995 177.551 -153.104 180.66 -153.104 184.496C-153.104 188.331 -149.995 191.44 -146.16 191.44C-142.324 191.44 -139.215 188.331 -139.215 184.496C-139.215 180.66 -142.324 177.551 -146.16 177.551Z" fill="#9AD2E9"/>
<path d="M-64.5629 26.0756C-68.3982 26.0756 -71.5073 29.1847 -71.5073 33.02C-71.5073 36.8553 -68.3982 39.9644 -64.5629 39.9644C-60.7275 39.9644 -57.6182 36.8553 -57.6182 33.02C-57.6182 29.1847 -60.7275 26.0756 -64.5629 26.0756Z" fill="#9AD2E9"/>
<path d="M-192.601 148.471C-196.436 148.471 -199.545 151.58 -199.545 155.416C-199.545 159.251 -196.436 162.36 -192.601 162.36C-188.766 162.36 -185.656 159.251 -185.656 155.416C-185.656 151.58 -188.766 148.471 -192.601 148.471Z" fill="#9AD2E9"/>
<path d="M-163.521 -49.8793C-167.356 -49.8793 -170.465 -46.7702 -170.465 -42.9349C-170.465 -39.0995 -167.356 -35.9905 -163.521 -35.9905C-159.686 -35.9905 -156.576 -39.0995 -156.576 -42.9349C-156.576 -46.7702 -159.686 -49.8793 -163.521 -49.8793Z" fill="#9AD2E9"/>
<path d="M-64.5629 26.0756C-68.3982 26.0756 -71.5073 29.1847 -71.5073 33.02C-71.5073 36.8553 -68.3982 39.9644 -64.5629 39.9644C-60.7275 39.9644 -57.6182 36.8553 -57.6182 33.02C-57.6182 29.1847 -60.7275 26.0756 -64.5629 26.0756Z" fill="#9AD2E9"/>
<path d="M-192.601 148.471C-196.436 148.471 -199.545 151.58 -199.545 155.416C-199.545 159.251 -196.436 162.36 -192.601 162.36C-188.766 162.36 -185.656 159.251 -185.656 155.416C-185.656 151.58 -188.766 148.471 -192.601 148.471Z" fill="#9AD2E9"/>
<path d="M-146.16 177.551C-149.995 177.551 -153.104 180.66 -153.104 184.496C-153.104 188.331 -149.995 191.44 -146.16 191.44C-142.324 191.44 -139.215 188.331 -139.215 184.496C-139.215 180.66 -142.324 177.551 -146.16 177.551Z" fill="#9AD2E9"/>
<path d="M-192.601 148.471C-196.436 148.471 -199.545 151.58 -199.545 155.416C-199.545 159.251 -196.436 162.36 -192.601 162.36C-188.766 162.36 -185.656 159.251 -185.656 155.416C-185.656 151.58 -188.766 148.471 -192.601 148.471Z" fill="#9AD2E9"/>
<path d="M-163.521 -49.8793C-167.356 -49.8793 -170.465 -46.7702 -170.465 -42.9349C-170.465 -39.0995 -167.356 -35.9905 -163.521 -35.9905C-159.686 -35.9905 -156.576 -39.0995 -156.576 -42.9349C-156.576 -46.7702 -159.686 -49.8793 -163.521 -49.8793Z" fill="#9AD2E9"/>
<path d="M-146.16 177.551C-149.995 177.551 -153.104 180.66 -153.104 184.496C-153.104 188.331 -149.995 191.44 -146.16 191.44C-142.324 191.44 -139.215 188.331 -139.215 184.496C-139.215 180.66 -142.324 177.551 -146.16 177.551Z" fill="#9AD2E9"/>
<path d="M215.385 -73.3169C211.55 -73.3169 208.441 -70.2078 208.441 -66.3725C208.441 -62.5372 211.55 -59.428 215.385 -59.428C219.22 -59.428 222.33 -62.5372 222.33 -66.3725C222.33 -70.2078 219.22 -73.3169 215.385 -73.3169Z" fill="#9AD2E9"/>
<path d="M232.746 171.475C228.911 171.475 225.802 174.584 225.802 178.419C225.802 182.254 228.911 185.364 232.746 185.364C236.582 185.364 239.691 182.254 239.691 178.419C239.691 174.584 236.582 171.475 232.746 171.475Z" fill="#9AD2E9"/>
<path d="M413.736 107.672C409.901 107.672 406.792 110.782 406.792 114.617C406.792 118.452 409.901 121.561 413.736 121.561C417.571 121.561 420.68 118.452 420.68 114.617C420.68 110.782 417.571 107.672 413.736 107.672Z" fill="#9AD2E9"/>
<path d="M215.385 -73.3169C211.55 -73.3169 208.441 -70.2078 208.441 -66.3725C208.441 -62.5372 211.55 -59.428 215.385 -59.428C219.22 -59.428 222.33 -62.5372 222.33 -66.3725C222.33 -70.2078 219.22 -73.3169 215.385 -73.3169Z" fill="#9AD2E9"/>
<path d="M355.142 -271.233C351.307 -271.233 348.198 -268.124 348.198 -264.289C348.198 -260.454 351.307 -257.345 355.142 -257.345C358.977 -257.345 362.087 -260.454 362.087 -264.289C362.087 -268.124 358.977 -271.233 355.142 -271.233Z" fill="#9AD2E9"/>
<path d="M402.017 -183.994C398.182 -183.994 395.073 -180.885 395.073 -177.05C395.073 -173.214 398.182 -170.105 402.017 -170.105C405.853 -170.105 408.962 -173.214 408.962 -177.05C408.962 -180.885 405.853 -183.994 402.017 -183.994Z" fill="#9AD2E9"/>
<path d="M215.385 -73.3169C211.55 -73.3169 208.441 -70.2078 208.441 -66.3725C208.441 -62.5372 211.55 -59.428 215.385 -59.428C219.22 -59.428 222.33 -62.5372 222.33 -66.3725C222.33 -70.2078 219.22 -73.3169 215.385 -73.3169Z" fill="#9AD2E9"/>
<path d="M-99.2849 -318.109C-103.12 -318.109 -106.229 -315 -106.229 -311.164C-106.229 -307.329 -103.12 -304.22 -99.2849 -304.22C-95.4496 -304.22 -92.3403 -307.329 -92.3403 -311.164C-92.3403 -315 -95.4496 -318.109 -99.2849 -318.109Z" fill="#9AD2E9"/>
<path d="M355.142 -271.233C351.307 -271.233 348.198 -268.124 348.198 -264.289C348.198 -260.454 351.307 -257.345 355.142 -257.345C358.977 -257.345 362.087 -260.454 362.087 -264.289C362.087 -268.124 358.977 -271.233 355.142 -271.233Z" fill="#9AD2E9"/>
<path d="M215.385 -73.3169C211.55 -73.3169 208.441 -70.2078 208.441 -66.3725C208.441 -62.5372 211.55 -59.428 215.385 -59.428C219.22 -59.428 222.33 -62.5372 222.33 -66.3725C222.33 -70.2078 219.22 -73.3169 215.385 -73.3169Z" fill="#9AD2E9"/>
<path d="M-64.5629 26.0756C-68.3982 26.0756 -71.5073 29.1847 -71.5073 33.02C-71.5073 36.8553 -68.3982 39.9644 -64.5629 39.9644C-60.7275 39.9644 -57.6182 36.8553 -57.6182 33.02C-57.6182 29.1847 -60.7275 26.0756 -64.5629 26.0756Z" fill="#9AD2E9"/>
<path d="M232.746 171.475C228.911 171.475 225.802 174.584 225.802 178.419C225.802 182.254 228.911 185.364 232.746 185.364C236.582 185.364 239.691 182.254 239.691 178.419C239.691 174.584 236.582 171.475 232.746 171.475Z" fill="#9AD2E9"/>
<path d="M215.385 -73.3169C211.55 -73.3169 208.441 -70.2078 208.441 -66.3725C208.441 -62.5372 211.55 -59.428 215.385 -59.428C219.22 -59.428 222.33 -62.5372 222.33 -66.3725C222.33 -70.2078 219.22 -73.3169 215.385 -73.3169Z" fill="#9AD2E9"/>
<path d="M-99.2849 -318.109C-103.12 -318.109 -106.229 -315 -106.229 -311.164C-106.229 -307.329 -103.12 -304.22 -99.2849 -304.22C-95.4496 -304.22 -92.3403 -307.329 -92.3403 -311.164C-92.3403 -315 -95.4496 -318.109 -99.2849 -318.109Z" fill="#9AD2E9"/>
<path d="M-64.5629 26.0756C-68.3982 26.0756 -71.5073 29.1847 -71.5073 33.02C-71.5073 36.8553 -68.3982 39.9644 -64.5629 39.9644C-60.7275 39.9644 -57.6182 36.8553 -57.6182 33.02C-57.6182 29.1847 -60.7275 26.0756 -64.5629 26.0756Z" fill="#9AD2E9"/>
<path d="M28.7531 503.94C24.9177 503.94 21.8086 507.049 21.8086 510.884C21.8086 514.72 24.9177 517.829 28.7531 517.829C32.5884 517.829 35.6978 514.72 35.6978 510.884C35.6978 507.049 32.5884 503.94 28.7531 503.94Z" fill="#9AD2E9"/>
<path d="M98.6316 568.176C94.7963 568.176 91.687 571.285 91.687 575.121C91.687 578.956 94.7963 582.065 98.6316 582.065C102.467 582.065 105.576 578.956 105.576 575.121C105.576 571.285 102.467 568.176 98.6316 568.176Z" fill="#9AD2E9"/>
<path d="M232.746 241.787C228.911 241.787 225.802 244.896 225.802 248.732C225.802 252.567 228.911 255.676 232.746 255.676C236.582 255.676 239.691 252.567 239.691 248.732C239.691 244.896 236.582 241.787 232.746 241.787Z" fill="#9AD2E9"/>
<path d="M28.7531 503.94C24.9177 503.94 21.8086 507.049 21.8086 510.884C21.8086 514.72 24.9177 517.829 28.7531 517.829C32.5884 517.829 35.6978 514.72 35.6978 510.884C35.6978 507.049 32.5884 503.94 28.7531 503.94Z" fill="#9AD2E9"/>
<path d="M-146.16 177.551C-149.995 177.551 -153.104 180.66 -153.104 184.496C-153.104 188.331 -149.995 191.44 -146.16 191.44C-142.324 191.44 -139.215 188.331 -139.215 184.496C-139.215 180.66 -142.324 177.551 -146.16 177.551Z" fill="#9AD2E9"/>
<path d="M232.746 241.787C228.911 241.787 225.802 244.896 225.802 248.732C225.802 252.567 228.911 255.676 232.746 255.676C236.582 255.676 239.691 252.567 239.691 248.732C239.691 244.896 236.582 241.787 232.746 241.787Z" fill="#9AD2E9"/>
<path d="M378.58 -96.3206C374.744 -96.3206 371.635 -93.2114 371.635 -89.3761C371.635 -85.5408 374.744 -82.4317 378.58 -82.4317C382.415 -82.4317 385.524 -85.5408 385.524 -89.3761C385.524 -93.2114 382.415 -96.3206 378.58 -96.3206Z" fill="#9AD2E9"/>
<path d="M413.736 107.672C409.901 107.672 406.792 110.782 406.792 114.617C406.792 118.452 409.901 121.561 413.736 121.561C417.571 121.561 420.68 118.452 420.68 114.617C420.68 110.782 417.571 107.672 413.736 107.672Z" fill="#9AD2E9"/>
<path d="M495.333 -108.039C491.498 -108.039 488.389 -104.93 488.389 -101.095C488.389 -97.2593 491.498 -94.1502 495.333 -94.1502C499.168 -94.1502 502.278 -97.2593 502.278 -101.095C502.278 -104.93 499.168 -108.039 495.333 -108.039Z" fill="#9AD2E9"/>
<path d="M378.58 -96.3206C374.744 -96.3206 371.635 -93.2114 371.635 -89.3761C371.635 -85.5408 374.744 -82.4317 378.58 -82.4317C382.415 -82.4317 385.524 -85.5408 385.524 -89.3761C385.524 -93.2114 382.415 -96.3206 378.58 -96.3206Z" fill="#9AD2E9"/>
<path d="M395.941 -108.039C392.105 -108.039 388.996 -104.93 388.996 -101.095C388.996 -97.2593 392.105 -94.1502 395.941 -94.1502C399.776 -94.1502 402.885 -97.2593 402.885 -101.095C402.885 -104.93 399.776 -108.039 395.941 -108.039Z" fill="#9AD2E9"/>
<path d="M495.333 -108.039C491.498 -108.039 488.389 -104.93 488.389 -101.095C488.389 -97.2593 491.498 -94.1502 495.333 -94.1502C499.168 -94.1502 502.278 -97.2593 502.278 -101.095C502.278 -104.93 499.168 -108.039 495.333 -108.039Z" fill="#9AD2E9"/>
<path d="M378.58 -96.3206C374.744 -96.3206 371.635 -93.2114 371.635 -89.3761C371.635 -85.5408 374.744 -82.4317 378.58 -82.4317C382.415 -82.4317 385.524 -85.5408 385.524 -89.3761C385.524 -93.2114 382.415 -96.3206 378.58 -96.3206Z" fill="#9AD2E9"/>
<path d="M215.385 -73.3169C211.55 -73.3169 208.441 -70.2078 208.441 -66.3725C208.441 -62.5372 211.55 -59.428 215.385 -59.428C219.22 -59.428 222.33 -62.5372 222.33 -66.3725C222.33 -70.2078 219.22 -73.3169 215.385 -73.3169Z" fill="#9AD2E9"/>
<path d="M413.736 107.672C409.901 107.672 406.792 110.782 406.792 114.617C406.792 118.452 409.901 121.561 413.736 121.561C417.571 121.561 420.68 118.452 420.68 114.617C420.68 110.782 417.571 107.672 413.736 107.672Z" fill="#9AD2E9"/>
<path d="M378.58 -96.3206C374.744 -96.3206 371.635 -93.2114 371.635 -89.3761C371.635 -85.5408 374.744 -82.4317 378.58 -82.4317C382.415 -82.4317 385.524 -85.5408 385.524 -89.3761C385.524 -93.2114 382.415 -96.3206 378.58 -96.3206Z" fill="#9AD2E9"/>
<path d="M395.941 -108.039C392.105 -108.039 388.996 -104.93 388.996 -101.095C388.996 -97.2593 392.105 -94.1502 395.941 -94.1502C399.776 -94.1502 402.885 -97.2593 402.885 -101.095C402.885 -104.93 399.776 -108.039 395.941 -108.039Z" fill="#9AD2E9"/>
<path d="M402.017 -183.994C398.182 -183.994 395.073 -180.885 395.073 -177.05C395.073 -173.214 398.182 -170.105 402.017 -170.105C405.853 -170.105 408.962 -173.214 408.962 -177.05C408.962 -180.885 405.853 -183.994 402.017 -183.994Z" fill="#9AD2E9"/>
<path d="M378.58 -96.3206C374.744 -96.3206 371.635 -93.2114 371.635 -89.3761C371.635 -85.5408 374.744 -82.4317 378.58 -82.4317C382.415 -82.4317 385.524 -85.5408 385.524 -89.3761C385.524 -93.2114 382.415 -96.3206 378.58 -96.3206Z" fill="#9AD2E9"/>
<path d="M215.385 -73.3169C211.55 -73.3169 208.441 -70.2078 208.441 -66.3725C208.441 -62.5372 211.55 -59.428 215.385 -59.428C219.22 -59.428 222.33 -62.5372 222.33 -66.3725C222.33 -70.2078 219.22 -73.3169 215.385 -73.3169Z" fill="#9AD2E9"/>
<path d="M402.017 -183.994C398.182 -183.994 395.073 -180.885 395.073 -177.05C395.073 -173.214 398.182 -170.105 402.017 -170.105C405.853 -170.105 408.962 -173.214 408.962 -177.05C408.962 -180.885 405.853 -183.994 402.017 -183.994Z" fill="#9AD2E9"/>
<path d="M40.4722 865.485C36.6368 865.485 33.5278 868.594 33.5278 872.43C33.5278 876.265 36.6368 879.374 40.4722 879.374C44.3075 879.374 47.4167 876.265 47.4167 872.43C47.4167 868.594 44.3075 865.485 40.4722 865.485Z" fill="#9AD2E9"/>
<path d="M40.4722 865.485C36.6368 865.485 33.5278 868.594 33.5278 872.43C33.5278 876.265 36.6368 879.374 40.4722 879.374C44.3075 879.374 47.4167 876.265 47.4167 872.43C47.4167 868.594 44.3075 865.485 40.4722 865.485Z" fill="#9AD2E9"/>
<path d="M40.4722 865.485C36.6368 865.485 33.5278 868.594 33.5278 872.43C33.5278 876.265 36.6368 879.374 40.4722 879.374C44.3075 879.374 47.4167 876.265 47.4167 872.43C47.4167 868.594 44.3075 865.485 40.4722 865.485Z" fill="#9AD2E9"/>
<path d="M40.4722 865.485C36.6368 865.485 33.5278 868.594 33.5278 872.43C33.5278 876.265 36.6368 879.374 40.4722 879.374C44.3075 879.374 47.4167 876.265 47.4167 872.43C47.4167 868.594 44.3075 865.485 40.4722 865.485Z" fill="#9AD2E9"/>
<path d="M98.6316 568.176C94.7963 568.176 91.687 571.285 91.687 575.121C91.687 578.956 94.7963 582.065 98.6316 582.065C102.467 582.065 105.576 578.956 105.576 575.121C105.576 571.285 102.467 568.176 98.6316 568.176Z" fill="#9AD2E9"/>
<path d="M28.7531 503.94C24.9177 503.94 21.8086 507.049 21.8086 510.884C21.8086 514.72 24.9177 517.829 28.7531 517.829C32.5884 517.829 35.6978 514.72 35.6978 510.884C35.6978 507.049 32.5884 503.94 28.7531 503.94Z" fill="#9AD2E9"/>
<path d="M98.6316 568.176C94.7963 568.176 91.687 571.285 91.687 575.121C91.687 578.956 94.7963 582.065 98.6316 582.065C102.467 582.065 105.576 578.956 105.576 575.121C105.576 571.285 102.467 568.176 98.6316 568.176Z" fill="#9AD2E9"/>
<path d="M40.4722 865.485C36.6368 865.485 33.5278 868.594 33.5278 872.43C33.5278 876.265 36.6368 879.374 40.4722 879.374C44.3075 879.374 47.4167 876.265 47.4167 872.43C47.4167 868.594 44.3075 865.485 40.4722 865.485Z" fill="#9AD2E9"/>
<path d="M-146.16 177.551C-149.995 177.551 -153.104 180.66 -153.104 184.496C-153.104 188.331 -149.995 191.44 -146.16 191.44C-142.324 191.44 -139.215 188.331 -139.215 184.496C-139.215 180.66 -142.324 177.551 -146.16 177.551Z" fill="#9AD2E9"/>
<path d="M28.7531 503.94C24.9177 503.94 21.8086 507.049 21.8086 510.884C21.8086 514.72 24.9177 517.829 28.7531 517.829C32.5884 517.829 35.6978 514.72 35.6978 510.884C35.6978 507.049 32.5884 503.94 28.7531 503.94Z" fill="#9AD2E9"/>
<path d="M-146.16 177.551C-149.995 177.551 -153.104 180.66 -153.104 184.496C-153.104 188.331 -149.995 191.44 -146.16 191.44C-142.324 191.44 -139.215 188.331 -139.215 184.496C-139.215 180.66 -142.324 177.551 -146.16 177.551Z" fill="#9AD2E9"/>
<path d="M1002.28 -289.028C998.443 -289.028 995.333 -285.919 995.333 -282.084C995.333 -278.249 998.443 -275.14 1002.28 -275.14C1006.11 -275.14 1009.22 -278.249 1009.22 -282.084C1009.22 -285.919 1006.11 -289.028 1002.28 -289.028Z" fill="#9AD2E9"/>
<path d="M1002.28 -289.028C998.443 -289.028 995.333 -285.919 995.333 -282.084C995.333 -278.249 998.443 -275.14 1002.28 -275.14C1006.11 -275.14 1009.22 -278.249 1009.22 -282.084C1009.22 -285.919 1006.11 -289.028 1002.28 -289.028Z" fill="#9AD2E9"/>
<path d="M1054.79 -207.432C1050.96 -207.432 1047.85 -204.323 1047.85 -200.487C1047.85 -196.652 1050.96 -193.543 1054.79 -193.543C1058.63 -193.543 1061.74 -196.652 1061.74 -200.487C1061.74 -204.323 1058.63 -207.432 1054.79 -207.432Z" fill="#9AD2E9"/>
<path d="M-163.521 -49.8793C-167.356 -49.8793 -170.465 -46.7702 -170.465 -42.9349C-170.465 -39.0995 -167.356 -35.9905 -163.521 -35.9905C-159.686 -35.9905 -156.576 -39.0995 -156.576 -42.9349C-156.576 -46.7702 -159.686 -49.8793 -163.521 -49.8793Z" fill="#9AD2E9"/>
<path d="M-99.2849 -318.109C-103.12 -318.109 -106.229 -315 -106.229 -311.164C-106.229 -307.329 -103.12 -304.22 -99.2849 -304.22C-95.4496 -304.22 -92.3403 -307.329 -92.3403 -311.164C-92.3403 -315 -95.4496 -318.109 -99.2849 -318.109Z" fill="#9AD2E9"/>
<path d="M-163.521 -49.8793C-167.356 -49.8793 -170.465 -46.7702 -170.465 -42.9349C-170.465 -39.0995 -167.356 -35.9905 -163.521 -35.9905C-159.686 -35.9905 -156.576 -39.0995 -156.576 -42.9349C-156.576 -46.7702 -159.686 -49.8793 -163.521 -49.8793Z" fill="#9AD2E9"/>
<path d="M-99.2849 -318.109C-103.12 -318.109 -106.229 -315 -106.229 -311.164C-106.229 -307.329 -103.12 -304.22 -99.2849 -304.22C-95.4496 -304.22 -92.3403 -307.329 -92.3403 -311.164C-92.3403 -315 -95.4496 -318.109 -99.2849 -318.109Z" fill="#9AD2E9"/>
<path d="M-99.2849 -318.109C-103.12 -318.109 -106.229 -315 -106.229 -311.164C-106.229 -307.329 -103.12 -304.22 -99.2849 -304.22C-95.4496 -304.22 -92.3403 -307.329 -92.3403 -311.164C-92.3403 -315 -95.4496 -318.109 -99.2849 -318.109Z" fill="#9AD2E9"/>
</svg>
