<svg width="15" height="12" viewBox="0 0 15 12" fill="none" xmlns="http://www.w3.org/2000/svg">
<path d="M0 0H15V2H0V0Z" fill="white"/>
<path d="M0 5H15V7H0V5Z" fill="white"/>
<path d="M0 10H15V12H0V10Z" fill="white"/>
</svg>
