<svg width="24" height="24" viewBox="0 0 24 24" fill="none" xmlns="http://www.w3.org/2000/svg">
<g clip-path="url(#clip0)">
<path d="M23.9766 7.05619C23.9203 5.78098 23.7141 4.90428 23.4187 4.14461C23.114 3.33824 22.6451 2.61629 22.0309 2.01614C21.4307 1.40665 20.704 0.933044 19.907 0.633058C19.1429 0.337651 18.2708 0.131434 16.9956 0.07521C15.7109 0.0142239 15.303 0.00012207 12.0446 0.00012207C8.78612 0.00012207 8.37827 0.0142239 7.09829 0.0704483C5.82308 0.126673 4.94639 0.333073 4.1869 0.628297C3.38035 0.933044 2.65841 1.40189 2.05825 2.01614C1.44876 2.61629 0.97534 3.343 0.675172 4.14003C0.379765 4.90428 0.173548 5.77621 0.117324 7.05143C0.0563382 8.33616 0.0422363 8.74402 0.0422363 12.0025C0.0422363 15.2609 0.0563382 15.6688 0.112562 16.9487C0.168787 18.224 0.375187 19.1007 0.670593 19.8603C0.97534 20.6667 1.44876 21.3886 2.05825 21.9888C2.65841 22.5983 3.38511 23.0719 4.18214 23.3719C4.94639 23.6673 5.81832 23.8735 7.09372 23.9297C8.3735 23.9861 8.78154 24 12.04 24C15.2984 24 15.7063 23.9861 16.9863 23.9297C18.2615 23.8735 19.1382 23.6673 19.8977 23.3719C21.5106 22.7483 22.7858 21.4731 23.4094 19.8603C23.7046 19.0961 23.911 18.224 23.9672 16.9487C24.0235 15.6688 24.0376 15.2609 24.0376 12.0025C24.0376 8.74402 24.0328 8.33616 23.9766 7.05619ZM21.8153 16.855C21.7637 18.0271 21.5668 18.66 21.4027 19.082C20.9994 20.1275 20.1696 20.9573 19.1241 21.3606C18.7021 21.5247 18.0646 21.7216 16.8971 21.7731C15.6312 21.8295 15.2515 21.8434 12.0493 21.8434C8.84711 21.8434 8.46269 21.8295 7.2014 21.7731C6.0293 21.7216 5.39636 21.5247 4.97441 21.3606C4.4541 21.1683 3.9805 20.8636 3.59609 20.4651C3.19757 20.0759 2.89283 19.607 2.70053 19.0867C2.53643 18.6648 2.33956 18.0271 2.28809 16.8597C2.23169 15.5939 2.21777 15.214 2.21777 12.0118C2.21777 8.80958 2.23169 8.42517 2.28809 7.16406C2.33956 5.99195 2.53643 5.35902 2.70053 4.93706C2.89283 4.41657 3.19757 3.94315 3.60085 3.55856C3.98984 3.16004 4.45868 2.85529 4.97917 2.66318C5.40113 2.49908 6.03882 2.30221 7.20616 2.25056C8.47203 2.19434 8.85187 2.18024 12.0539 2.18024C15.2609 2.18024 15.6405 2.19434 16.9018 2.25056C18.0739 2.30221 18.7069 2.49908 19.1288 2.66318C19.6491 2.85529 20.1227 3.16004 20.5071 3.55856C20.9057 3.94773 21.2104 4.41657 21.4027 4.93706C21.5668 5.35902 21.7637 5.99653 21.8153 7.16406C21.8715 8.42993 21.8856 8.80958 21.8856 12.0118C21.8856 15.214 21.8715 15.5891 21.8153 16.855Z" fill="white"/>
<path d="M12.0445 5.83716C8.64086 5.83716 5.87927 8.59856 5.87927 12.0024C5.87927 15.4063 8.64086 18.1677 12.0445 18.1677C15.4484 18.1677 18.2098 15.4063 18.2098 12.0024C18.2098 8.59856 15.4484 5.83716 12.0445 5.83716ZM12.0445 16.0017C9.8364 16.0017 8.04528 14.2107 8.04528 12.0024C8.04528 9.79411 9.8364 8.00317 12.0445 8.00317C14.2529 8.00317 16.0438 9.79411 16.0438 12.0024C16.0438 14.2107 14.2529 16.0017 12.0445 16.0017Z" fill="white"/>
<path d="M19.893 5.59349C19.893 6.38832 19.2485 7.0328 18.4535 7.0328C17.6587 7.0328 17.0142 6.38832 17.0142 5.59349C17.0142 4.79847 17.6587 4.15417 18.4535 4.15417C19.2485 4.15417 19.893 4.79847 19.893 5.59349Z" fill="white"/>
</g>
<defs>
<clipPath id="clip0">
<rect width="24" height="24" fill="white" transform="translate(0 0.00012207)"/>
</clipPath>
</defs>
</svg>
