<svg width="20" height="20" viewBox="0 0 20 20" fill="none" xmlns="http://www.w3.org/2000/svg">
<path d="M0.621887 13.4782C2.03482 17.2861 5.70025 19.9999 9.9999 19.9999C14.2995 19.9999 17.965 17.2861 19.3779 13.4782L9.9999 12.6086L0.621887 13.4782Z" fill="#FFDA44"/>
<path d="M9.9999 0C5.70025 0 2.03482 2.71375 0.621887 6.52176L9.9999 7.39129L19.3779 6.52172C17.965 2.71375 14.2995 0 9.9999 0Z" fill="black"/>
<path d="M0.621992 6.52173C0.220039 7.60505 0 8.77677 0 9.99997C0 11.2232 0.220039 12.3949 0.621992 13.4782H19.378C19.78 12.3949 20 11.2232 20 9.99997C20 8.77677 19.78 7.60505 19.378 6.52173H0.621992Z" fill="#D80027"/>
</svg>
