<svg width="20" height="20" viewBox="0 0 20 20" fill="none" xmlns="http://www.w3.org/2000/svg">
<path d="M10 20C15.5228 20 20 15.5228 20 10C20 4.47715 15.5228 0 10 0C4.47715 0 0 4.47715 0 10C0 15.5228 4.47715 20 10 20Z" fill="#F0F0F0"/>
<path d="M2.06709 3.91187C1.28158 4.93386 0.689274 6.11179 0.344391 7.39144H5.54666L2.06709 3.91187Z" fill="#0052B4"/>
<path d="M19.6554 7.3914C19.3105 6.11179 18.7181 4.93386 17.9327 3.91187L14.4532 7.3914H19.6554Z" fill="#0052B4"/>
<path d="M0.344391 12.6086C0.689313 13.8883 1.28162 15.0662 2.06709 16.0881L5.54654 12.6086H0.344391Z" fill="#0052B4"/>
<path d="M16.088 2.06722C15.066 1.28171 13.8881 0.689404 12.6085 0.344482V5.54671L16.088 2.06722Z" fill="#0052B4"/>
<path d="M3.91168 17.9328C4.93367 18.7183 6.1116 19.3106 7.39121 19.6556V14.4534L3.91168 17.9328Z" fill="#0052B4"/>
<path d="M7.39117 0.344482C6.11156 0.689404 4.93364 1.28171 3.91168 2.06718L7.39117 5.54667V0.344482Z" fill="#0052B4"/>
<path d="M12.6085 19.6556C13.8881 19.3106 15.066 18.7183 16.088 17.9329L12.6085 14.4534V19.6556Z" fill="#0052B4"/>
<path d="M14.4532 12.6086L17.9327 16.0882C18.7181 15.0662 19.3105 13.8883 19.6554 12.6086H14.4532Z" fill="#0052B4"/>
<path d="M19.9154 8.69566H11.3044L11.3044 0.0846484C10.8774 0.0290625 10.4421 0 10 0C9.55785 0 9.12262 0.0290625 8.69566 0.0846484V8.69559L0.0846484 8.69563C0.0290625 9.12262 0 9.55793 0 10C0 10.4421 0.0290625 10.8774 0.0846484 11.3043H8.69559L8.69563 19.9154C9.12262 19.9709 9.55785 20 10 20C10.4421 20 10.8774 19.971 11.3043 19.9154V11.3044L19.9154 11.3044C19.9709 10.8774 20 10.4421 20 10C20 9.55793 19.9709 9.12262 19.9154 8.69566Z" fill="#D80027"/>
<path d="M12.6087 12.6087L17.0711 17.071C17.2763 16.8659 17.4721 16.6514 17.6589 16.429L13.8385 12.6086H12.6087V12.6087Z" fill="#D80027"/>
<path d="M7.3913 12.6086H7.39122L2.92892 17.0709C3.13408 17.2762 3.34857 17.472 3.57092 17.6588L7.3913 13.8383V12.6086Z" fill="#D80027"/>
<path d="M7.39119 7.39142V7.39135L2.92885 2.92896C2.72361 3.13411 2.52783 3.3486 2.34103 3.57095L6.16146 7.39138H7.39119V7.39142Z" fill="#D80027"/>
<path d="M12.6087 7.39126L17.0711 2.92884C16.866 2.7236 16.6515 2.52782 16.4291 2.34106L12.6087 6.16149V7.39126Z" fill="#D80027"/>
</svg>
