<svg width="20" height="20" viewBox="0 0 20 20" fill="none" xmlns="http://www.w3.org/2000/svg">
<path d="M10 20C15.5228 20 20 15.5228 20 10C20 4.47715 15.5228 0 10 0C4.47715 0 0 4.47715 0 10C0 15.5228 4.47715 20 10 20Z" fill="#D80027"/>
<path d="M9.8148 3.729L11.1877 7.95343H15.6296L12.0388 10.5688L13.4118 14.7933L9.8148 12.1841L6.21782 14.7933L7.59697 10.5688L4 7.95343H8.44186L9.8148 3.729Z" fill="#FFDA44"/>
</svg>
